We have to talk about maps
…
- we want to study the price per square meter for single family dwellings in Norwegian muncipalities.
- we have some data originally from SSB in the file `bld06_19.Rdata`.
- we start by loading the data
---

## Import data

```r
load(file="../data/bld06_19.Rdata")
bld90_19
```

```
## # A tibble: 2,538 × 16
##    knrNavn  btype    y2006 y2007 y2008 y2009 y2010 y2011 y2012 y2013 y2014 y2015
##    <chr>    <chr>    <dbl> <dbl> <dbl> <dbl> <dbl> <dbl> <dbl> <dbl> <dbl> <dbl>
##  1 0101 Ha… Andre b…   629   630   600   596   629   639   648   660   663   661
##  2 0101 Ha… Boligbl…  2108  2088  2135  2164  2168  2168  2174  2171  2177  2202
##  3 0101 Ha… Bygning…   181   181   181   173   173   173   173   173   236   459
##  4 0101 Ha… Enebolig  7134  7168  7258  7323  7381  7425  7453  7528  7628  7680
##  5 0101 Ha… Rekkehu…  1768  1812  1874  1935  1973  1995  2012  2049  2078  2109
##  6 0101 Ha… Tomanns…  2101  2140  2155  2171  2159  2159  2181  2204  2212  2254
##  7 0104 Mo… Andre b…   612   526   555   572   569   590   583   589   615   603
##  8 0104 Mo… Boligbl…  3640  3763  3981  4155  4176  4216  4244  4264  4460  4560
##  9 0104 Mo… Bygning…    89   150   179   181   181   181   194   194   250   259
## 10 0104 Mo… Enebolig  4907  4936  4936  4982  5010  5046  4998  5018  5029  5041
## # … with 2,528 more rows, and 4 more variables: y2016 <dbl>, y2017 <dbl>,
## #   y2018 <dbl>, y2019 <dbl>
```
…
# Check that the names are equal

```r
kf_sf_423_2018_pm2 %>% 
  filter(!identical(kNavn, sfd_kNavn)) %>% 
  print(n=5)
```

```
## Simple feature collection with 423 features and 4 fields
## Geometry type: MULTIPOLYGON
## Dimension:     XY
## Bounding box:  xmin: -99551.21 ymin: 6426048 xmax: 1121941 ymax: 7962744
## Projected CRS: ETRS89 / UTM zone 33N
## # A tibble: 423 × 5
##   knr   kNavn       sfd_kNavn     pm2                                   geometry
## * <chr> <chr>       <chr>       <dbl>                         <MULTIPOLYGON [m]>
## 1 0101  Halden      Halden       7864 (((279596.3 6555228, 280474 6556668, 2804…
## 2 0104  Moss        Moss         5084 (((247465.5 6599443, 248497.9 6601261, 24…
## 3 0105  Sarpsborg   Sarpsborg   13028 (((273359.1 6577360, 273356.2 6577381, 27…
## 4 0106  Fredrikstad Fredrikstad 18700 (((249999.8 6574664, 249814.3 6575270, 24…
## 5 0111  Hvaler      Hvaler       1923 (((251957.3 6553129, 256847.8 6552769, 25…
## # … with 418 more rows
```
…
